{
	"info": {
		"_postman_id": "d4762c99-232f-40e7-920b-f77ce83598eb",
		"name": "Mcodnalds",
		"schema": "https://schema.getpostman.com/json/collection/v2.1.0/collection.json"
	},
	"item": [
		{
			"name": "Auth",
			"item": [
				{
					"name": "Login SuAdmin",
					"event": [
						{
							"listen": "test",
							"script": {
								"id": "2ea65c1d-5dea-42b1-9498-43a9e1d3c29b",
								"exec": [
									"const response = pm.response.json();",
									"",
									"pm.environment.set(\"token\", response.access_token);"
								],
								"type": "text/javascript"
							}
						}
					],
					"request": {
						"method": "POST",
						"header": [],
						"body": {
							"mode": "raw",
							"raw": "{\n\t\"email\":\"admin@admin.pl\",\n\t\"password\":\"admin\"\n}",
							"options": {
								"raw": {
									"language": "json"
								}
							}
						},
						"url": {
							"raw": "{{address}}/api/auth/login",
							"host": [
								"{{address}}"
							],
							"path": [
								"api",
								"auth",
								"login"
							]
						}
					},
					"response": []
				},
				{
					"name": "Login Admin",
					"event": [
						{
							"listen": "test",
							"script": {
								"id": "7e4b0917-bc87-49bb-9f07-18f015809c70",
								"exec": [
									"const response = pm.response.json();",
									"",
									"pm.environment.set(\"token\", response.access_token);"
								],
								"type": "text/javascript"
							}
						}
					],
					"request": {
						"method": "POST",
						"header": [],
						"body": {
							"mode": "raw",
							"raw": "{\n\t\"email\":\"admin@admin.pl\",\n\t\"password\":\"admin\"\n}",
							"options": {
								"raw": {
									"language": "json"
								}
							}
						},
						"url": {
							"raw": "{{address}}/api/auth/login",
							"host": [
								"{{address}}"
							],
							"path": [
								"api",
								"auth",
								"login"
							]
						}
					},
					"response": []
				},
				{
					"name": "Login Mgr",
					"event": [
						{
							"listen": "test",
							"script": {
								"id": "0d2655e6-14b7-4196-b28a-20e5755b502e",
								"exec": [
									"const response = pm.response.json();",
									"",
									"pm.environment.set(\"token\", response.access_token);"
								],
								"type": "text/javascript"
							}
						}
					],
					"request": {
						"method": "POST",
						"header": [],
						"body": {
							"mode": "raw",
							"raw": "{\n\t\"email\":\"admin@admin.pl\",\n\t\"password\":\"admin\"\n}",
							"options": {
								"raw": {
									"language": "json"
								}
							}
						},
						"url": {
							"raw": "{{address}}/api/auth/login",
							"host": [
								"{{address}}"
							],
							"path": [
								"api",
								"auth",
								"login"
							]
						}
					},
					"response": []
				},
				{
					"name": "Login Employer",
					"event": [
						{
							"listen": "test",
							"script": {
								"id": "4dbd7bf0-be0c-47fc-8cba-90b7ff27cccc",
								"exec": [
									"const response = pm.response.json();",
									"",
									"pm.environment.set(\"token\", response.access_token);"
								],
								"type": "text/javascript"
							}
						}
					],
					"request": {
						"method": "POST",
						"header": [],
						"body": {
							"mode": "raw",
							"raw": "{\n\t\"email\":\"admin@admin.pl\",\n\t\"password\":\"admin\"\n}",
							"options": {
								"raw": {
									"language": "json"
								}
							}
						},
						"url": {
							"raw": "{{address}}/api/auth/login",
							"host": [
								"{{address}}"
							],
							"path": [
								"api",
								"auth",
								"login"
							]
						}
					},
					"response": []
				},
				{
					"name": "Refresh",
					"event": [
						{
							"listen": "test",
							"script": {
								"id": "ba132f9d-fe7b-453e-a471-7b928b54c5ad",
								"exec": [
									"const response = pm.response.json();",
									"",
									"pm.environment.set(\"token\", response.access_token);"
								],
								"type": "text/javascript"
							}
						}
					],
					"request": {
						"auth": {
							"type": "bearer",
							"bearer": [
								{
									"key": "token",
									"value": "{{token}}",
									"type": "string"
								}
							]
						},
						"method": "POST",
						"header": [],
						"url": {
							"raw": "{{url}}/api/auth/refresh",
							"host": [
								"{{url}}"
							],
							"path": [
								"api",
								"auth",
								"refresh"
							]
						}
					},
					"response": []
				},
				{
					"name": "Me",
					"event": [
						{
							"listen": "test",
							"script": {
								"id": "4f9a8ebd-b667-48dc-8158-b4affb5d27e3",
								"exec": [
									""
								],
								"type": "text/javascript"
							}
						}
					],
					"request": {
						"auth": {
							"type": "bearer",
							"bearer": [
								{
									"key": "token",
									"value": "{{token}}",
									"type": "string"
								}
							]
						},
						"method": "POST",
						"header": [],
						"body": {
							"mode": "raw",
							"raw": ""
						},
						"url": {
							"raw": "{{address}}/api/auth/me",
							"host": [
								"{{address}}"
							],
							"path": [
								"api",
								"auth",
								"me"
							]
						}
					},
					"response": []
				},
				{
					"name": "Logout",
					"request": {
						"auth": {
							"type": "bearer",
							"bearer": [
								{
									"key": "token",
									"value": "{{token}}",
									"type": "string"
								}
							]
						},
						"method": "POST",
						"header": [],
						"url": {
							"raw": "{{url}}/api/auth/logout",
							"host": [
								"{{url}}"
							],
							"path": [
								"api",
								"auth",
								"logout"
							]
						}
					},
					"response": []
				}
			],
			"protocolProfileBehavior": {}
		},
		{
			"name": "Site",
			"item": [
				{
					"name": "addSite",
					"event": [
						{
							"listen": "test",
							"script": {
								"id": "d8966d56-97c4-468a-ba6f-e30ea9ff40ad",
								"exec": [
									""
								],
								"type": "text/javascript"
							}
						}
					],
					"request": {
						"auth": {
							"type": "bearer",
							"bearer": [
								{
									"key": "token",
									"value": "{{token}}",
									"type": "string"
								}
							]
						},
						"method": "PUT",
						"header": [],
						"body": {
							"mode": "raw",
							"raw": "{\r\n    \"number\": 84,\r\n    \"name\": \"Zielona Góra 1\"\r\n}",
							"options": {
								"raw": {
									"language": "json"
								}
							}
						},
						"url": {
							"raw": "{{address}}/api/site/addSite",
							"host": [
								"{{address}}"
							],
							"path": [
								"api",
								"site",
								"addSite"
							]
						}
					},
					"response": []
				},
				{
					"name": "deleteSite",
					"event": [
						{
							"listen": "test",
							"script": {
								"id": "a5984bbf-acc1-499d-8dca-40123a0340cc",
								"exec": [
									""
								],
								"type": "text/javascript"
							}
						}
					],
					"request": {
						"auth": {
							"type": "bearer",
							"bearer": [
								{
									"key": "token",
									"value": "{{token}}",
									"type": "string"
								}
							]
						},
						"method": "DELETE",
						"header": [],
						"body": {
							"mode": "raw",
							"raw": "{\r\n   \"site_id\": 1\r\n}",
							"options": {
								"raw": {
									"language": "json"
								}
							}
						},
						"url": {
							"raw": "{{address}}/api/site/deleteSite",
							"host": [
								"{{address}}"
							],
							"path": [
								"api",
								"site",
								"deleteSite"
							]
						}
					},
					"response": []
				},
				{
					"name": "getSite",
					"event": [
						{
							"listen": "test",
							"script": {
								"id": "fb444331-4596-49f6-bea6-3da9525b8109",
								"exec": [
									""
								],
								"type": "text/javascript"
							}
						}
					],
					"request": {
						"auth": {
							"type": "bearer",
							"bearer": [
								{
									"key": "token",
									"value": "{{token}}",
									"type": "string"
								}
							]
						},
						"method": "POST",
						"header": [],
						"body": {
							"mode": "raw",
							"raw": "{\r\n   \"id\": 1\r\n}",
							"options": {
								"raw": {
									"language": "json"
								}
							}
						},
						"url": {
							"raw": "{{address}}/api/site/getSite",
							"host": [
								"{{address}}"
							],
							"path": [
								"api",
								"site",
								"getSite"
							]
						}
					},
					"response": []
				},
				{
					"name": "getSites",
					"event": [
						{
							"listen": "test",
							"script": {
								"id": "f90066e7-52cc-4eeb-80be-f6151e6903f4",
								"exec": [
									""
								],
								"type": "text/javascript"
							}
						}
					],
					"protocolProfileBehavior": {
						"disableBodyPruning": true
					},
					"request": {
						"auth": {
							"type": "bearer",
							"bearer": [
								{
									"key": "token",
									"value": "{{token}}",
									"type": "string"
								}
							]
						},
						"method": "GET",
						"header": [],
						"body": {
							"mode": "raw",
							"raw": "",
							"options": {
								"raw": {
									"language": "json"
								}
							}
						},
						"url": {
							"raw": "{{address}}/api/site/getSites",
							"host": [
								"{{address}}"
							],
							"path": [
								"api",
								"site",
								"getSites"
							]
						}
					},
					"response": []
				},
				{
					"name": "editSIte",
					"event": [
						{
							"listen": "test",
							"script": {
								"id": "dd81cebc-8c4b-4237-bf87-e754bd793510",
								"exec": [
									""
								],
								"type": "text/javascript"
							}
						}
					],
					"request": {
						"auth": {
							"type": "bearer",
							"bearer": [
								{
									"key": "token",
									"value": "{{token}}",
									"type": "string"
								}
							]
						},
						"method": "PATCH",
						"header": [],
						"body": {
							"mode": "raw",
							"raw": "{\r\n    \"site_id\": 2,\r\n    \"number\": 84,\r\n    \"name\": \"Zielona Góra 2\"\r\n}",
							"options": {
								"raw": {
									"language": "json"
								}
							}
						},
						"url": {
							"raw": "{{address}}/api/site/editSite",
							"host": [
								"{{address}}"
							],
							"path": [
								"api",
								"site",
								"editSite"
							]
						}
					},
					"response": []
				}
			],
			"protocolProfileBehavior": {}
		},
		{
			"name": "Day",
			"item": [
				{
					"name": "getGraphicForDay",
					"event": [
						{
							"listen": "test",
							"script": {
								"id": "37a02c88-334f-41c7-9ecb-eed8b1dd7d72",
								"exec": [
									""
								],
								"type": "text/javascript"
							}
						}
					],
					"request": {
						"auth": {
							"type": "bearer",
							"bearer": [
								{
									"key": "token",
									"value": "{{token}}",
									"type": "string"
								}
							]
						},
						"method": "POST",
						"header": [],
						"body": {
							"mode": "raw",
							"raw": "{\r\n    \"day\": 1,\r\n    \"month\": 12,\r\n    \"year\": 2019,\r\n    \"site_id\"\r\n}",
							"options": {
								"raw": {
									"language": "json"
								}
							}
						},
						"url": {
							"raw": "{{address}}/api/day/getGraphicForDay",
							"host": [
								"{{address}}"
							],
							"path": [
								"api",
								"day",
								"getGraphicForDay"
							]
						}
					},
					"response": []
				},
				{
					"name": "getGraphicForUser",
					"event": [
						{
							"listen": "test",
							"script": {
								"id": "464ca95c-05e9-411d-ba31-0061f42cf7a2",
								"exec": [
									""
								],
								"type": "text/javascript"
							}
						}
					],
					"request": {
						"auth": {
							"type": "bearer",
							"bearer": [
								{
									"key": "token",
									"value": "{{token}}",
									"type": "string"
								}
							]
						},
						"method": "POST",
						"header": [],
						"body": {
							"mode": "raw",
							"raw": "{\r\n    \"month\": 12,\r\n    \"year\": 2019\r\n}",
							"options": {
								"raw": {
									"language": "json"
								}
							}
						},
						"url": {
							"raw": "{{address}}/api/day/getGraphicForUser",
							"host": [
								"{{address}}"
							],
							"path": [
								"api",
								"day",
								"getGraphicForUser"
							]
						}
					},
					"response": []
				}
			],
			"protocolProfileBehavior": {}
		},
		{
			"name": "User",
			"item": [
				{
					"name": "registerUser",
					"event": [
						{
							"listen": "test",
							"script": {
								"id": "1c1eb50f-4d98-47db-9d97-37f7ae018ddb",
								"exec": [
									""
								],
								"type": "text/javascript"
							}
						}
					],
					"request": {
						"auth": {
							"type": "bearer",
							"bearer": [
								{
									"key": "token",
									"value": "{{token}}",
									"type": "string"
								}
							]
						},
						"method": "POST",
						"header": [],
						"body": {
							"mode": "raw",
							"raw": "{\r\n    \"site_id\": 1,\r\n    \"firstName\": \"test\",\r\n    \"lastName\": \"test\",\r\n    \"email\": \"test@test.pl\",\r\n    \"password\": \"zaq1@WSX\",\r\n    \"passwordConfirm\": \"zaq1@WSX\"\r\n}",
							"options": {
								"raw": {
									"language": "json"
								}
							}
						},
						"url": {
							"raw": "{{address}}/api/user/registerUser",
							"host": [
								"{{address}}"
							],
							"path": [
								"api",
								"user",
								"registerUser"
							]
						}
					},
					"response": []
				},
				{
					"name": "activeNotificationsUser",
					"event": [
						{
							"listen": "test",
							"script": {
								"id": "d11d505b-7c82-403c-b38d-4edab05c20f9",
								"exec": [
									""
								],
								"type": "text/javascript"
							}
						}
					],
					"request": {
						"auth": {
							"type": "bearer",
							"bearer": [
								{
									"key": "token",
									"value": "{{token}}",
									"type": "string"
								}
							]
						},
						"method": "PATCH",
						"header": [],
						"body": {
							"mode": "raw",
							"raw": "{\r\n    \"user_id\": 5\r\n}",
							"options": {
								"raw": {
									"language": "json"
								}
							}
						},
						"url": {
							"raw": "{{address}}/api/user/activeNotificationsUser",
							"host": [
								"{{address}}"
							],
							"path": [
								"api",
								"user",
								"activeNotificationsUser"
							]
						}
					},
					"response": []
				},
				{
					"name": "unActiveNotificationsUser",
					"event": [
						{
							"listen": "test",
							"script": {
								"id": "ec59e8aa-a560-4334-9518-cafc031323a7",
								"exec": [
									""
								],
								"type": "text/javascript"
							}
						}
					],
					"request": {
						"auth": {
							"type": "bearer",
							"bearer": [
								{
									"key": "token",
									"value": "{{token}}",
									"type": "string"
								}
							]
						},
						"method": "PATCH",
						"header": [],
						"body": {
							"mode": "raw",
							"raw": "{\r\n    \"user_id\": 5\r\n}",
							"options": {
								"raw": {
									"language": "json"
								}
							}
						},
						"url": {
							"raw": "{{address}}/api/user/unActiveNotificationsUser",
							"host": [
								"{{address}}"
							],
							"path": [
								"api",
								"user",
								"unActiveNotificationsUser"
							]
						}
					},
					"response": []
				},
				{
					"name": "getUser",
					"event": [
						{
							"listen": "test",
							"script": {
								"id": "5a3c5804-65b3-4eac-b976-da8a7391767a",
								"exec": [
									""
								],
								"type": "text/javascript"
							}
						}
					],
					"request": {
						"auth": {
							"type": "bearer",
							"bearer": [
								{
									"key": "token",
									"value": "{{token}}",
									"type": "string"
								}
							]
						},
						"method": "POST",
						"header": [],
						"body": {
							"mode": "raw",
							"raw": "{\r\n    \"user_id\": 5\r\n}",
							"options": {
								"raw": {
									"language": "json"
								}
							}
						},
						"url": {
							"raw": "{{address}}/api/user/getUser",
							"host": [
								"{{address}}"
							],
							"path": [
								"api",
								"user",
								"getUser"
							]
						}
					},
					"response": []
				},
				{
					"name": "changePassword",
					"event": [
						{
							"listen": "test",
							"script": {
								"id": "9c7e57b4-60fc-43a4-a639-48b70302eaf1",
								"exec": [
									""
								],
								"type": "text/javascript"
							}
						}
					],
					"request": {
						"auth": {
							"type": "bearer",
							"bearer": [
								{
									"key": "token",
									"value": "{{token}}",
									"type": "string"
								}
							]
						},
						"method": "PATCH",
						"header": [],
						"body": {
							"mode": "raw",
							"raw": "{\r\n    \"user_id\": 5\r\n}",
							"options": {
								"raw": {
									"language": "json"
								}
							}
						},
						"url": {
							"raw": "{{address}}/api/user/changePassword",
							"host": [
								"{{address}}"
							],
							"path": [
								"api",
								"user",
								"changePassword"
							]
						}
					},
					"response": []
				},
				{
					"name": "activeUser",
					"event": [
						{
							"listen": "test",
							"script": {
								"id": "48002abb-0b3b-4e63-bd5f-dd2db45fa835",
								"exec": [
									""
								],
								"type": "text/javascript"
							}
						}
					],
					"request": {
						"auth": {
							"type": "bearer",
							"bearer": [
								{
									"key": "token",
									"value": "{{token}}",
									"type": "string"
								}
							]
						},
						"method": "PATCH",
						"header": [],
						"body": {
							"mode": "raw",
							"raw": "{\r\n    \"user_id\": 5\r\n}",
							"options": {
								"raw": {
									"language": "json"
								}
							}
						},
						"url": {
							"raw": "{{address}}/api/user/activeUser",
							"host": [
								"{{address}}"
							],
							"path": [
								"api",
								"user",
								"activeUser"
							]
						}
					},
					"response": []
				},
				{
					"name": "unActiveUser",
					"event": [
						{
							"listen": "test",
							"script": {
								"id": "8a16a885-c621-4a01-af42-6097a194959c",
								"exec": [
									""
								],
								"type": "text/javascript"
							}
						}
					],
					"request": {
						"auth": {
							"type": "bearer",
							"bearer": [
								{
									"key": "token",
									"value": "{{token}}",
									"type": "string"
								}
							]
						},
						"method": "PATCH",
						"header": [],
						"body": {
							"mode": "raw",
							"raw": "{\r\n    \"user_id\": 5\r\n}",
							"options": {
								"raw": {
									"language": "json"
								}
							}
						},
						"url": {
							"raw": "{{address}}/api/user/unActiveUser",
							"host": [
								"{{address}}"
							],
							"path": [
								"api",
								"user",
								"unActiveUser"
							]
						}
					},
					"response": []
				},
				{
					"name": "deleteUser",
					"event": [
						{
							"listen": "test",
							"script": {
								"id": "9162ef51-977d-4910-a603-cdd2740e2c6b",
								"exec": [
									""
								],
								"type": "text/javascript"
							}
						}
					],
					"request": {
						"auth": {
							"type": "bearer",
							"bearer": [
								{
									"key": "token",
									"value": "{{token}}",
									"type": "string"
								}
							]
						},
						"method": "DELETE",
						"header": [],
						"body": {
							"mode": "raw",
							"raw": "{\r\n    \"user_id\": 5\r\n}",
							"options": {
								"raw": {
									"language": "json"
								}
							}
						},
						"url": {
							"raw": "{{address}}/api/user/deleteUser",
							"host": [
								"{{address}}"
							],
							"path": [
								"api",
								"user",
								"deleteUser"
							]
						}
					},
					"response": []
				},
				{
					"name": "getUsers",
					"event": [
						{
							"listen": "test",
							"script": {
								"id": "e665b272-3dca-46e0-854a-3b6b53282491",
								"exec": [
									""
								],
								"type": "text/javascript"
							}
						}
					],
					"protocolProfileBehavior": {
						"disableBodyPruning": true
					},
					"request": {
						"auth": {
							"type": "bearer",
							"bearer": [
								{
									"key": "token",
									"value": "{{token}}",
									"type": "string"
								}
							]
						},
						"method": "GET",
						"header": [],
						"body": {
							"mode": "raw",
							"raw": "",
							"options": {
								"raw": {
									"language": "json"
								}
							}
						},
						"url": {
							"raw": "{{address}}/api/user/getUsers",
							"host": [
								"{{address}}"
							],
							"path": [
								"api",
								"user",
								"getUsers"
							]
						}
					},
					"response": []
				},
				{
					"name": "modifyUser",
					"event": [
						{
							"listen": "test",
							"script": {
								"id": "7f020705-59a1-451a-b373-9750e571361f",
								"exec": [
									""
								],
								"type": "text/javascript"
							}
						}
					],
					"request": {
						"auth": {
							"type": "bearer",
							"bearer": [
								{
									"key": "token",
									"value": "{{token}}",
									"type": "string"
								}
							]
						},
						"method": "PATCH",
						"header": [],
						"body": {
							"mode": "raw",
							"raw": "{\r\n    \"user_id\": 5,\r\n    \"site_id\": 1,\r\n    \"firstName\": \"test1\",\r\n    \"lastName\": \"test\"\r\n}",
							"options": {
								"raw": {
									"language": "json"
								}
							}
						},
						"url": {
							"raw": "{{address}}/api/user/modifyUser",
							"host": [
								"{{address}}"
							],
							"path": [
								"api",
								"user",
								"modifyUser"
							]
						}
					},
					"response": []
				},
				{
					"name": "changeRole",
					"event": [
						{
							"listen": "test",
							"script": {
								"id": "3a6e3a33-5671-4eb6-af93-074bec297607",
								"exec": [
									""
								],
								"type": "text/javascript"
							}
						}
					],
					"request": {
						"auth": {
							"type": "bearer",
							"bearer": [
								{
									"key": "token",
									"value": "{{token}}",
									"type": "string"
								}
							]
						},
						"method": "PATCH",
						"header": [],
						"body": {
							"mode": "raw",
							"raw": "{\r\n    \"user_id\": 1,\r\n    \"role\": \"employer\"\r\n}\r\n",
							"options": {
								"raw": {
									"language": "json"
								}
							}
						},
						"url": {
							"raw": "{{address}}/api/user/changeRole",
							"host": [
								"{{address}}"
							],
							"path": [
								"api",
								"user",
								"changeRole"
							]
						}
					},
					"response": []
				}
			],
			"protocolProfileBehavior": {}
		},
		{
			"name": "UpdateGraphic",
			"request": {
				"method": "GET",
				"header": [],
				"url": {
					"raw": ""
				}
			},
			"response": []
		}
	],
	"protocolProfileBehavior": {}
}